<svg xmlns="http://www.w3.org/2000/svg" viewBox="0 0 40 25">
  <defs>
    <style>
      .cls-1 {
        fill: #e7e8e3;
      }

      .cls-2 {
        fill: #34495e;
      }

      .cls-3 {
        fill: #fff;
      }

      .cls-4 {
        fill: #202121;
        opacity: 0.15;
      }

      .cls-5 {
        fill: #ea001b;
      }

      .cls-6 {
        fill: #f79f1a;
      }

      .cls-7 {
        fill: #ff5f01;
      }
    </style>
  </defs>
  <g id="master-card" transform="translate(0 -79.451)">
    <path id="Path_10" data-name="Path 10" class="cls-1" d="M40,102.308a2.262,2.262,0,0,1-2.364,2.143H2.364A2.262,2.262,0,0,1,0,102.308V81.594a2.262,2.262,0,0,1,2.364-2.143H37.635A2.262,2.262,0,0,1,40,81.594v20.714Z"/>
    <rect id="Rectangle_1" data-name="Rectangle 1" class="cls-2" width="40" height="5.098" transform="translate(0 84.314)"/>
    <rect id="Rectangle_2" data-name="Rectangle 2" class="cls-3" width="40" height="3.155" transform="translate(0 89.413)"/>
    <path id="Path_11" data-name="Path 11" class="cls-4" d="M1.681,102.308V81.594a2.262,2.262,0,0,1,2.365-2.143H2.364A2.262,2.262,0,0,0,0,81.594v20.714a2.262,2.262,0,0,0,2.364,2.143H4.046A2.262,2.262,0,0,1,1.681,102.308Z"/>
    <path id="Path_12" data-name="Path 12" class="cls-5" d="M319.424,303.718a3.273,3.273,0,0,1,1.386-2.633,3.968,3.968,0,0,0-2.353-.755,3.405,3.405,0,1,0,0,6.777,3.968,3.968,0,0,0,2.353-.755A3.273,3.273,0,0,1,319.424,303.718Z" transform="translate(-290.131 -205.239)"/>
    <path id="Path_13" data-name="Path 13" class="cls-6" d="M395.051,300.329a3.967,3.967,0,0,0-2.353.755,3.195,3.195,0,0,1,0,5.267,3.968,3.968,0,0,0,2.353.755,3.405,3.405,0,1,0,0-6.777Z" transform="translate(-362.018 -205.239)"/>
    <path id="Path_14" data-name="Path 14" class="cls-7" d="M377.728,313.631A3.273,3.273,0,0,0,376.342,311a3.194,3.194,0,0,0,0,5.267A3.273,3.273,0,0,0,377.728,313.631Z" transform="translate(-345.663 -215.153)"/>
    <g id="Group_2" data-name="Group 2" transform="translate(3.679 95.493)">
      <path id="Path_15" data-name="Path 15" class="cls-3" d="M55.915,307.209H47.741a.594.594,0,1,1,0-1.182h8.174a.594.594,0,1,1,0,1.182Z" transform="translate(-47.089 -306.027)"/>
      <path id="Path_16" data-name="Path 16" class="cls-3" d="M55.915,341.908H47.741a.594.594,0,1,1,0-1.182h8.174a.594.594,0,1,1,0,1.182Z" transform="translate(-47.089 -338.269)"/>
      <path id="Path_17" data-name="Path 17" class="cls-3" d="M55.915,376.607H47.741a.594.594,0,1,1,0-1.182h8.174a.594.594,0,1,1,0,1.182Z" transform="translate(-47.089 -370.512)"/>
    </g>
  </g>
</svg>
