<?xml version="1.0" encoding="utf-8"?>
<!-- Generator: Adobe Illustrator 22.1.0, SVG Export Plug-In . SVG Version: 6.00 Build 0)  -->
<svg version="1.1" id="Layer_1" xmlns="http://www.w3.org/2000/svg" xmlns:xlink="http://www.w3.org/1999/xlink" x="0px" y="0px"
	 viewBox="0 0 150 212" style="enable-background:new 0 0 150 212;" xml:space="preserve">
<style type="text/css">
	.st0{fill:#31B1E5;stroke:#3A3838;stroke-miterlimit:10;}
	.st1{fill:none;stroke:#3A3838;stroke-miterlimit:10;}
	.st2{fill:none;stroke:#424243;stroke-miterlimit:10;}
	.st3{fill:none;stroke:#424243;stroke-width:2;stroke-miterlimit:10;}
	.st4{fill:#231F20;}
	.st5{fill:#D0D2D3;}
</style>
<polygon class="st0" points="28.1,34.5 27.3,21.1 17.8,34.5 "/>
<polyline class="st0" points="130.8,20.8 129,34.5 139.3,34.5 131,20.8 "/>
<path class="st0" d="M138.2,34.5H17.8c0,0,35,51,4.5,129.5h111.5C103.2,85.5,138.2,34.5,138.2,34.5"/>
<path class="st0" d="M29.7,62.5c0,0,0.1,49-10.4,84l3,17.5C22.3,164,46.9,97.5,29.7,62.5z"/>
<path class="st0" d="M126.8,60.8c0,0-0.6,50.7,9.9,85.7l-2.7,16C134,162.5,109.6,95.8,126.8,60.8z"/>
<polygon class="st1" points="17.8,34.5 27.1,20.2 131.3,20.2 139.5,34.5 "/>
<path class="st2" d="M62.6,34.5c0,0,18-37.5,35,0"/>
<path class="st2" d="M62.6,20.2c0,0,18-37.5,35,0"/>
<g>
	<line class="st3" x1="57.9" y1="63.1" x2="66.4" y2="58.1"/>
	<line class="st3" x1="93.5" y1="57.9" x2="102.3" y2="62.5"/>
	<circle class="st4" cx="65.6" cy="66.3" r="2.6"/>
	<circle class="st5" cx="65.7" cy="67.8" r="1.1"/>
	<circle class="st4" cx="93.5" cy="66.3" r="2.6"/>
	<circle class="st5" cx="93.6" cy="67.8" r="1.1"/>
</g>
<path class="st3" d="M65.6,92.7c0,0,12.3-12,28,0"/>
<path class="st2" d="M127.7,97c0,0,34,5.7-0.5,30.5l-28.7,16"/>
<path class="st2" d="M28.7,97c0,0-34,5.7,0.5,30.5l28.7,16"/>
<path class="st2" d="M57.9,164c0,0,3.6,32.5,0.1,44.5"/>
<path class="st2" d="M102.3,164c0,0,3.6,32.5,0.1,44.5"/>
</svg>
