<svg id="Group_102" data-name="Group 102" xmlns="http://www.w3.org/2000/svg" xmlns:xlink="http://www.w3.org/1999/xlink" viewBox="-7462 -689 46 46">
  <defs>
    <style>
      .cls-1 {
        fill: #752781;
      }

      .cls-2 {
        fill: #fff;
      }

      .cls-3 {
        filter: url(#Rectangle_10);
      }
    </style>
    <filter id="Rectangle_10" x="-7462" y="-689" width="46" height="46" filterUnits="userSpaceOnUse">
      <feOffset dx="-1" dy="2" input="SourceAlpha"/>
      <feGaussianBlur stdDeviation="1" result="blur"/>
      <feFlood flood-opacity="0.161"/>
      <feComposite operator="in" in2="blur"/>
      <feComposite in="SourceGraphic"/>
    </filter>
  </defs>
  <g class="cls-3" transform="matrix(1, 0, 0, 1, 0, 0)">
    <rect id="Rectangle_10-2" data-name="Rectangle 10" class="cls-1" width="40" height="40" transform="translate(-7458 -688)"/>
  </g>
  <path id="Path_51" data-name="Path 51" class="cls-2" d="M8.14,0A8.14,8.14,0,0,0,4.592,15.465l2.93,6.166a.675.675,0,0,0,1.221,0l2.93-6.166A8.14,8.14,0,0,0,8.14,0Zm0,4.07A3.839,3.839,0,1,1,4.3,7.909,3.844,3.844,0,0,1,8.14,4.07Z" transform="translate(-7446 -679)"/>
</svg>
