<svg xmlns="http://www.w3.org/2000/svg" viewBox="-3089.601 -12613.401 31.634 30.33">
  <defs>
    <style>
      .cls-1 {
        fill: #752781;
      }
    </style>
  </defs>
  <path id="Union_2" data-name="Union 2" class="cls-1" d="M528.67-82.25l-4.685,4.67L510.6-91l3.188-3.188L526.846-107.2l.4-.4H534.7l5.915,5.9v7.53l-3.365,3.35a6.963,6.963,0,0,1,4.981,6.627,6.931,6.931,0,0,1-6.923,6.923A6.933,6.933,0,0,1,528.67-82.25Zm.771-1.941c0,.148,0,.3.014.445,0,.044.015.074.015.119.014.074.014.148.03.237v.015a5.863,5.863,0,0,0,5.8,5.04,5.862,5.862,0,0,0,5.855-5.871,5.859,5.859,0,0,0-5.026-5.781h-.014c-.1-.015-.193-.015-.3-.03a.129.129,0,0,0-.074-.015c-.148,0-.3-.014-.445-.014A5.858,5.858,0,0,0,529.441-84.191ZM512.1-91l11.888,11.918,2.432-2.445-11.874-11.9Zm3.2-3.188,11.874,11.889,1.23-1.23v-.222c0-.045-.015-.074-.015-.119a2.7,2.7,0,0,1,0-.341,6.931,6.931,0,0,1,6.923-6.923h.327c.03,0,.059.015.088.015a.339.339,0,0,0,.119.014.494.494,0,0,0,.148.015l3.558-3.543v-6.641l-5.292-5.277h-6.567Zm19.878,12.66a.6.6,0,0,1-.341-.119l-2.55-2.091a.534.534,0,0,1-.074-.741.541.541,0,0,1,.756-.075l2.105,1.72,2.979-4.284a.539.539,0,0,1,.742-.133.541.541,0,0,1,.133.741l-3.306,4.758a.546.546,0,0,1-.371.223Zm-4.091-19.183a2.087,2.087,0,0,1,2.09-2.09,2.088,2.088,0,0,1,2.091,2.09,2.088,2.088,0,0,1-2.091,2.091A2.1,2.1,0,0,1,531.086-100.706Zm1.052-.014a1.042,1.042,0,0,0,1.038,1.038,1.038,1.038,0,0,0,1.023-1.038,1.026,1.026,0,0,0-1.023-1.023A1.039,1.039,0,0,0,532.138-100.72Z" transform="translate(-3600.2 -12505.803)"/>
</svg>
