<svg xmlns="http://www.w3.org/2000/svg" viewBox="0 0 214.8 141">
  <defs>
    <style>
      .cls-1 {
        fill: #9CABB5;
      }
    </style>
  </defs>
  <g id="Group_10" data-name="Group 10" transform="translate(-856.5 -13.1)">
    <path id="Path_26" data-name="Path 26" class="cls-1" d="M913,153.8l-.1-28.6-5.3-9.6-.1-19.2h-5.6v19.2l-5.4,9.6v28.6"/>
    <path id="Path_27" data-name="Path 27" class="cls-1" d="M893,153.8l-.1-28.6-5.3-9.6-.1-19.2h-5.6v19.2l-5.4,9.6v28.6"/>
    <path id="Path_28" data-name="Path 28" class="cls-1" d="M873,153.8l-.1-28.6-5.3-9.6-.1-19.2h-5.6v19.2l-5.4,9.6v28.6"/>
    <path id="Path_29" data-name="Path 29" class="cls-1" d="M1071.3,154.1l-.1-28.6-5.3-9.6V96.6h-5.7v19.3l-5.3,9.6-.1,28.6"/>
    <circle id="Ellipse_4" data-name="Ellipse 4" class="cls-1" cx="21.4" cy="21.4" r="21.4" transform="translate(960.9 13.1)"/>
    <ellipse id="Ellipse_5" data-name="Ellipse 5" class="cls-1" cx="4.4" cy="4.6" rx="4.4" ry="4.6" transform="translate(977.9 60.9)"/>
    <path id="Path_30" data-name="Path 30" class="cls-1" d="M1045.1,146.5c-.8-2.4-1.5-4.8-2.2-7.3-1.6-5.4-3.2-10.8-4.9-16.2-.9-3.1-1.9-6.3-2.8-9.4-6.2-20-9.3-44.2-27.5-50.5-3.8-1.3-8.9-1.9-16.5-2.2l-8.9,34.7h0l-8.9-34.7c-7.6.3-12.7.9-16.5,2.2-18.2,6.3-21.3,30.5-27.5,50.5-1.7,5.4-3.3,10.8-4.9,16.2-1.5,5-3.1,10-4.4,15-.8,3.1-1.9,6.7-.8,9.2h17.8c.9-2.5,1.6-5.3,2.5-8.4,4.9-16.3,9.5-30.4,14-45.2.4-1.4.8-1.9,1.5-4.5H959c-.5,2.5-1.7,7.6-2.6,10.7-4.6,16.1-9.3,32.2-14,47.3h80c-4.7-15.1-9.4-31.2-14-47.4-.9-3.1-2-8.2-2.6-10.7h3.9a30.845,30.845,0,0,0,1.5,4.4c4.6,14.8,9.2,29.2,14,45.4.9,3,1.6,5.7,2.5,8.2h17.7c.1,0,.2-.6.2-.8A11.229,11.229,0,0,0,1045.1,146.5Z"/>
  </g>
</svg>
